<?xml version="1.0" encoding="utf-8"?>
<!DOCTYPE eagle SYSTEM "eagle.dtd">
<eagle version="6.5.0">
<drawing>
<settings>
<setting alwaysvectorfont="yes"/>
<setting verticaltext="up"/>
</settings>
<grid distance="0.01" unitdist="inch" unit="inch" style="lines" multiple="1" display="yes" altdistance="0.025" altunitdist="inch" altunit="inch"/>
<layers>
<layer number="1" name="Top" color="4" fill="1" visible="yes" active="yes"/>
<layer number="2" name="Route2" color="1" fill="3" visible="no" active="no"/>
<layer number="3" name="Route3" color="4" fill="3" visible="no" active="no"/>
<layer number="4" name="Route4" color="1" fill="4" visible="no" active="no"/>
<layer number="5" name="Route5" color="4" fill="4" visible="no" active="no"/>
<layer number="6" name="Route6" color="1" fill="8" visible="no" active="no"/>
<layer number="7" name="Route7" color="4" fill="8" visible="no" active="no"/>
<layer number="8" name="Route8" color="1" fill="2" visible="no" active="no"/>
<layer number="9" name="Route9" color="4" fill="2" visible="no" active="no"/>
<layer number="10" name="Route10" color="1" fill="7" visible="no" active="no"/>
<layer number="11" name="Route11" color="4" fill="7" visible="no" active="no"/>
<layer number="12" name="Route12" color="1" fill="5" visible="no" active="no"/>
<layer number="13" name="Route13" color="4" fill="5" visible="no" active="no"/>
<layer number="14" name="Route14" color="1" fill="6" visible="no" active="no"/>
<layer number="15" name="Route15" color="4" fill="6" visible="no" active="no"/>
<layer number="16" name="Bottom" color="1" fill="1" visible="yes" active="yes"/>
<layer number="17" name="Pads" color="2" fill="1" visible="yes" active="yes"/>
<layer number="18" name="Vias" color="2" fill="1" visible="yes" active="yes"/>
<layer number="19" name="Unrouted" color="6" fill="1" visible="yes" active="yes"/>
<layer number="20" name="Dimension" color="15" fill="1" visible="yes" active="yes"/>
<layer number="21" name="tPlace" color="7" fill="1" visible="yes" active="yes"/>
<layer number="22" name="bPlace" color="7" fill="1" visible="yes" active="yes"/>
<layer number="23" name="tOrigins" color="15" fill="1" visible="yes" active="yes"/>
<layer number="24" name="bOrigins" color="15" fill="1" visible="yes" active="yes"/>
<layer number="25" name="tNames" color="7" fill="1" visible="yes" active="yes"/>
<layer number="26" name="bNames" color="7" fill="1" visible="yes" active="yes"/>
<layer number="27" name="tValues" color="7" fill="1" visible="no" active="yes"/>
<layer number="28" name="bValues" color="7" fill="1" visible="no" active="yes"/>
<layer number="29" name="tStop" color="7" fill="3" visible="no" active="yes"/>
<layer number="30" name="bStop" color="7" fill="6" visible="no" active="yes"/>
<layer number="31" name="tCream" color="7" fill="4" visible="no" active="yes"/>
<layer number="32" name="bCream" color="7" fill="5" visible="no" active="yes"/>
<layer number="33" name="tFinish" color="6" fill="3" visible="no" active="yes"/>
<layer number="34" name="bFinish" color="6" fill="6" visible="no" active="yes"/>
<layer number="35" name="tGlue" color="7" fill="4" visible="no" active="yes"/>
<layer number="36" name="bGlue" color="7" fill="5" visible="no" active="yes"/>
<layer number="37" name="tTest" color="7" fill="1" visible="no" active="yes"/>
<layer number="38" name="bTest" color="7" fill="1" visible="no" active="yes"/>
<layer number="39" name="tKeepout" color="4" fill="11" visible="yes" active="yes"/>
<layer number="40" name="bKeepout" color="1" fill="11" visible="yes" active="yes"/>
<layer number="41" name="tRestrict" color="4" fill="10" visible="yes" active="yes"/>
<layer number="42" name="bRestrict" color="1" fill="10" visible="yes" active="yes"/>
<layer number="43" name="vRestrict" color="2" fill="10" visible="yes" active="yes"/>
<layer number="44" name="Drills" color="7" fill="1" visible="no" active="yes"/>
<layer number="45" name="Holes" color="7" fill="1" visible="yes" active="yes"/>
<layer number="46" name="Milling" color="3" fill="1" visible="no" active="yes"/>
<layer number="47" name="Measures" color="7" fill="1" visible="yes" active="yes"/>
<layer number="48" name="Document" color="7" fill="1" visible="yes" active="yes"/>
<layer number="49" name="Reference" color="7" fill="1" visible="yes" active="yes"/>
<layer number="50" name="dxf" color="7" fill="1" visible="no" active="no"/>
<layer number="51" name="tDocu" color="7" fill="1" visible="yes" active="yes"/>
<layer number="52" name="bDocu" color="7" fill="1" visible="yes" active="yes"/>
<layer number="53" name="tGND_GNDA" color="7" fill="9" visible="no" active="no"/>
<layer number="54" name="bGND_GNDA" color="1" fill="9" visible="no" active="no"/>
<layer number="56" name="wert" color="7" fill="1" visible="no" active="no"/>
<layer number="57" name="tCAD" color="7" fill="1" visible="no" active="no"/>
<layer number="91" name="Nets" color="2" fill="1" visible="no" active="no"/>
<layer number="92" name="Busses" color="1" fill="1" visible="no" active="no"/>
<layer number="93" name="Pins" color="2" fill="1" visible="no" active="no"/>
<layer number="94" name="Symbols" color="4" fill="1" visible="no" active="no"/>
<layer number="95" name="Names" color="7" fill="1" visible="no" active="no"/>
<layer number="96" name="Values" color="7" fill="1" visible="no" active="no"/>
<layer number="97" name="Info" color="7" fill="1" visible="no" active="no"/>
<layer number="98" name="Guide" color="6" fill="1" visible="no" active="no"/>
<layer number="100" name="Muster" color="7" fill="1" visible="no" active="no"/>
<layer number="101" name="Patch_Top" color="12" fill="4" visible="no" active="yes"/>
<layer number="102" name="Vscore" color="7" fill="1" visible="no" active="yes"/>
<layer number="103" name="3d" color="13" fill="1" visible="yes" active="yes"/>
<layer number="104" name="Name" color="7" fill="1" visible="no" active="yes"/>
<layer number="105" name="tPlate" color="7" fill="1" visible="no" active="yes"/>
<layer number="106" name="bPlate" color="7" fill="1" visible="no" active="yes"/>
<layer number="107" name="Crop" color="7" fill="1" visible="no" active="yes"/>
<layer number="108" name="fp8" color="7" fill="1" visible="no" active="yes"/>
<layer number="109" name="fp9" color="7" fill="1" visible="no" active="yes"/>
<layer number="110" name="fp0" color="7" fill="1" visible="no" active="yes"/>
<layer number="111" name="LPC17xx" color="7" fill="1" visible="no" active="yes"/>
<layer number="112" name="tSilk" color="7" fill="1" visible="no" active="yes"/>
<layer number="116" name="Patch_BOT" color="9" fill="4" visible="no" active="yes"/>
<layer number="118" name="Rect_Pads" color="7" fill="1" visible="no" active="yes"/>
<layer number="121" name="_tsilk" color="7" fill="1" visible="no" active="yes"/>
<layer number="122" name="_bsilk" color="7" fill="1" visible="no" active="yes"/>
<layer number="123" name="tTestmark" color="7" fill="1" visible="no" active="yes"/>
<layer number="124" name="bTestmark" color="7" fill="1" visible="no" active="yes"/>
<layer number="125" name="_tNames" color="7" fill="1" visible="no" active="yes"/>
<layer number="126" name="_bNames" color="7" fill="1" visible="no" active="yes"/>
<layer number="127" name="_tValues" color="7" fill="1" visible="no" active="yes"/>
<layer number="128" name="_bValues" color="7" fill="1" visible="no" active="yes"/>
<layer number="131" name="tAdjust" color="7" fill="1" visible="no" active="yes"/>
<layer number="132" name="bAdjust" color="7" fill="1" visible="no" active="yes"/>
<layer number="144" name="Drill_legend" color="7" fill="1" visible="no" active="yes"/>
<layer number="150" name="Notes" color="7" fill="1" visible="yes" active="yes"/>
<layer number="151" name="HeatSink" color="7" fill="1" visible="no" active="yes"/>
<layer number="152" name="_bDocu" color="7" fill="1" visible="no" active="yes"/>
<layer number="153" name="FabDoc1" color="7" fill="1" visible="yes" active="yes"/>
<layer number="154" name="FabDoc2" color="7" fill="1" visible="yes" active="yes"/>
<layer number="155" name="FabDoc3" color="7" fill="1" visible="yes" active="yes"/>
<layer number="199" name="Contour" color="7" fill="1" visible="no" active="yes"/>
<layer number="200" name="200bmp" color="1" fill="10" visible="no" active="yes"/>
<layer number="201" name="201bmp" color="2" fill="10" visible="no" active="yes"/>
<layer number="202" name="202bmp" color="3" fill="10" visible="no" active="yes"/>
<layer number="203" name="203bmp" color="4" fill="10" visible="no" active="yes"/>
<layer number="204" name="204bmp" color="5" fill="10" visible="no" active="yes"/>
<layer number="205" name="205bmp" color="6" fill="10" visible="no" active="yes"/>
<layer number="206" name="206bmp" color="7" fill="10" visible="no" active="yes"/>
<layer number="207" name="207bmp" color="8" fill="10" visible="no" active="yes"/>
<layer number="208" name="208bmp" color="9" fill="10" visible="no" active="yes"/>
<layer number="209" name="209bmp" color="7" fill="1" visible="no" active="yes"/>
<layer number="210" name="210bmp" color="7" fill="1" visible="no" active="yes"/>
<layer number="211" name="211bmp" color="7" fill="1" visible="no" active="yes"/>
<layer number="212" name="212bmp" color="7" fill="1" visible="no" active="yes"/>
<layer number="213" name="213bmp" color="7" fill="1" visible="no" active="yes"/>
<layer number="214" name="214bmp" color="7" fill="1" visible="no" active="yes"/>
<layer number="215" name="215bmp" color="7" fill="1" visible="no" active="yes"/>
<layer number="216" name="216bmp" color="7" fill="1" visible="no" active="yes"/>
<layer number="217" name="217bmp" color="18" fill="1" visible="no" active="no"/>
<layer number="218" name="218bmp" color="19" fill="1" visible="no" active="no"/>
<layer number="219" name="219bmp" color="20" fill="1" visible="no" active="no"/>
<layer number="220" name="220bmp" color="21" fill="1" visible="no" active="no"/>
<layer number="221" name="221bmp" color="22" fill="1" visible="no" active="no"/>
<layer number="222" name="222bmp" color="23" fill="1" visible="no" active="no"/>
<layer number="223" name="223bmp" color="24" fill="1" visible="no" active="no"/>
<layer number="224" name="224bmp" color="25" fill="1" visible="no" active="no"/>
<layer number="231" name="Eagle3D_PG1" color="7" fill="1" visible="no" active="yes"/>
<layer number="232" name="Eagle3D_PG2" color="7" fill="1" visible="no" active="yes"/>
<layer number="233" name="Eagle3D_PG3" color="7" fill="1" visible="no" active="yes"/>
<layer number="247" name="wrappinf" color="7" fill="1" visible="no" active="yes"/>
<layer number="248" name="PLCDoku" color="7" fill="1" visible="no" active="yes"/>
<layer number="249" name="MillDoku" color="7" fill="1" visible="no" active="yes"/>
<layer number="250" name="Descript" color="3" fill="1" visible="no" active="no"/>
<layer number="251" name="SMDround" color="12" fill="11" visible="no" active="no"/>
<layer number="252" name="BR-BS" color="7" fill="1" visible="no" active="yes"/>
<layer number="253" name="BR-LS" color="7" fill="1" visible="no" active="yes"/>
<layer number="254" name="cooling" color="7" fill="1" visible="no" active="yes"/>
<layer number="255" name="ZchnBlatt" color="7" fill="1" visible="no" active="yes"/>
</layers>
<board>
<plain>
<wire x1="0" y1="0" x2="49.53" y2="0" width="0" layer="20"/>
<wire x1="49.53" y1="0" x2="49.53" y2="17.78" width="0" layer="20"/>
<wire x1="49.53" y1="17.78" x2="0" y2="17.78" width="0" layer="20"/>
<wire x1="0" y1="17.78" x2="0" y2="0" width="0" layer="20"/>
<text x="5.588" y="5.588" size="1.27" layer="21" ratio="15">V</text>
<text x="5.588" y="10.668" size="1.27" layer="21" ratio="15">G</text>
<text x="5.588" y="8.382" size="1.27" layer="21" ratio="15">S</text>
<text x="27.94" y="15.24" size="1.016" layer="22" ratio="15" rot="MR0">Designed By Aditya Gaddam</text>
<text x="5.08" y="15.24" size="2.032" layer="21" ratio="20">SIGNAL SENSEI</text>
<text x="23.622" y="0.508" size="1.016" layer="22" ratio="15" rot="MR0">$rev: $</text>
<text x="44.45" y="1.27" size="1.016" layer="22" ratio="15" rot="MR0">serial</text>
<rectangle x1="24.13" y1="0" x2="39.37" y2="2.54" layer="22"/>
<text x="27.94" y="13.97" size="1.016" layer="22" ratio="15" rot="MR0">www.lostinspacebar.com</text>
</plain>
<libraries>
<library name="aditya_main">
<description>Common anode RGB matrix</description>
<packages>
<package name="3POS_254MM_1R_THRU">
<wire x1="-1.27" y1="1.27" x2="-1.27" y2="-1.27" width="0.127" layer="21"/>
<wire x1="-1.27" y1="-1.27" x2="6.35" y2="-1.27" width="0.127" layer="21"/>
<wire x1="6.35" y1="-1.27" x2="6.35" y2="1.27" width="0.127" layer="21"/>
<wire x1="6.35" y1="1.27" x2="-1.27" y2="1.27" width="0.127" layer="21"/>
<pad name="P$1" x="0" y="0" drill="1.016" diameter="1.905" shape="square"/>
<pad name="P$2" x="2.54" y="0" drill="1.016" diameter="1.905"/>
<pad name="P$3" x="5.08" y="0" drill="1.016" diameter="1.905"/>
<text x="-1.27" y="1.27" size="1.27" layer="21">&gt;NAME</text>
</package>
<package name="AXIAL-5MM">
<wire x1="-1.14" y1="0.762" x2="1.14" y2="0.762" width="0.2032" layer="21"/>
<wire x1="1.14" y1="0.762" x2="1.14" y2="0" width="0.2032" layer="21"/>
<wire x1="1.14" y1="0" x2="1.14" y2="-0.762" width="0.2032" layer="21"/>
<wire x1="1.14" y1="-0.762" x2="-1.14" y2="-0.762" width="0.2032" layer="21"/>
<wire x1="-1.14" y1="-0.762" x2="-1.14" y2="0" width="0.2032" layer="21"/>
<wire x1="-1.14" y1="0" x2="-1.14" y2="0.762" width="0.2032" layer="21"/>
<wire x1="1.14" y1="0" x2="1.394" y2="0" width="0.2032" layer="21"/>
<wire x1="-1.14" y1="0" x2="-1.394" y2="0" width="0.2032" layer="21"/>
<pad name="P$1" x="-2.5" y="0" drill="0.9" diameter="1.8796"/>
<pad name="P$2" x="2.5" y="0" drill="0.9" diameter="1.8796"/>
<text x="-2.54" y="1.17" size="0.762" layer="25">&gt;Name</text>
<text x="-1.032" y="-0.208" size="0.4" layer="21" ratio="15">&gt;Value</text>
</package>
<package name="SCREW_#2">
<circle x="0" y="0" radius="2.159" width="0.127" layer="25"/>
<text x="-0.254" y="1.524" size="0.254" layer="21">#2</text>
<text x="-0.508" y="-1.778" size="0.254" layer="21">0.089"</text>
<hole x="0" y="0" drill="2.2606"/>
</package>
</packages>
</library>
<library name="SparkFun-AnalogIC">
<description>&lt;h3&gt;SparkFun Electronics' preferred foot prints&lt;/h3&gt;
In this library you'll find all manner of analog ICs- DACs, ADCs, video chips, op-amps, and others.&lt;br&gt;&lt;br&gt;
We've spent an enormous amount of time creating and checking these footprints and parts, but it is the end user's responsibility to ensure correctness and suitablity for a given componet or application. If you enjoy using this library, please buy one of our products at www.sparkfun.com.
&lt;br&gt;&lt;br&gt;
&lt;b&gt;Licensing:&lt;/b&gt; CC v3.0 Share-Alike You are welcome to use this library for commercial purposes. For attribution, we ask that when you begin to sell your device using our footprint, you email us with a link to the product being sold. We want bragging rights that we helped (in a very small part) to create your 8th world wonder. We would like the opportunity to feature your device on our homepage.</description>
<packages>
<package name="SOT23-5">
<description>&lt;b&gt;Small Outline Transistor&lt;/b&gt;</description>
<wire x1="1.4224" y1="0.4294" x2="1.4224" y2="-0.4294" width="0.2032" layer="21"/>
<wire x1="1.4" y1="-0.8" x2="-1.4" y2="-0.8" width="0.1524" layer="51"/>
<wire x1="-1.4224" y1="-0.4294" x2="-1.4224" y2="0.4294" width="0.2032" layer="21"/>
<wire x1="-1.4" y1="0.8" x2="1.4" y2="0.8" width="0.1524" layer="51"/>
<wire x1="-0.2684" y1="0.8104" x2="0.2684" y2="0.8104" width="0.2032" layer="21"/>
<wire x1="1.4" y1="0.8" x2="1.4" y2="-0.8" width="0.1524" layer="51"/>
<wire x1="-1.4" y1="0.8" x2="-1.4" y2="-0.8" width="0.1524" layer="51"/>
<smd name="1" x="-0.95" y="-1.3001" dx="0.55" dy="1.2" layer="1"/>
<smd name="2" x="0" y="-1.3001" dx="0.55" dy="1.2" layer="1"/>
<smd name="3" x="0.95" y="-1.3001" dx="0.55" dy="1.2" layer="1"/>
<smd name="4" x="0.95" y="1.3001" dx="0.55" dy="1.2" layer="1"/>
<smd name="5" x="-0.95" y="1.3001" dx="0.55" dy="1.2" layer="1"/>
<text x="-0.889" y="2.159" size="0.4064" layer="25">&gt;NAME</text>
<text x="-0.9525" y="-0.1905" size="0.4064" layer="27">&gt;VALUE</text>
<rectangle x1="-1.2" y1="-1.5" x2="-0.7" y2="-0.85" layer="51"/>
<rectangle x1="-0.25" y1="-1.5" x2="0.25" y2="-0.85" layer="51"/>
<rectangle x1="0.7" y1="-1.5" x2="1.2" y2="-0.85" layer="51"/>
<rectangle x1="0.7" y1="0.85" x2="1.2" y2="1.5" layer="51"/>
<rectangle x1="-1.2" y1="0.85" x2="-0.7" y2="1.5" layer="51"/>
</package>
</packages>
</library>
<library name="SparkFun-Electromechanical">
<description>&lt;h3&gt;SparkFun Electronics' preferred foot prints&lt;/h3&gt;
In this library you'll find anything that moves- switches, relays, buttons, potentiometers. Also, anything that goes on a board but isn't electrical in nature- screws, standoffs, etc.&lt;br&gt;&lt;br&gt;
We've spent an enormous amount of time creating and checking these footprints and parts, but it is the end user's responsibility to ensure correctness and suitablity for a given componet or application. If you enjoy using this library, please buy one of our products at www.sparkfun.com.
&lt;br&gt;&lt;br&gt;
&lt;b&gt;Licensing:&lt;/b&gt; CC v3.0 Share-Alike You are welcome to use this library for commercial purposes. For attribution, we ask that when you begin to sell your device using our footprint, you email us with a link to the product being sold. We want bragging rights that we helped (in a very small part) to create your 8th world wonder. We would like the opportunity to feature your device on our homepage.</description>
<packages>
<package name="TRIM_POT_PTH">
<circle x="0" y="0" radius="2.008" width="0.127" layer="21"/>
<wire x1="2.54" y1="2.54" x2="-2.54" y2="2.54" width="0.127" layer="21"/>
<wire x1="-2.54" y1="2.54" x2="-2.54" y2="-2.54" width="0.127" layer="21"/>
<wire x1="-2.54" y1="-2.54" x2="2.54" y2="-2.54" width="0.127" layer="21"/>
<wire x1="2.54" y1="-2.54" x2="2.54" y2="2.54" width="0.127" layer="21"/>
<wire x1="0" y1="-1.27" x2="0" y2="0" width="0.127" layer="21"/>
<wire x1="-1.27" y1="0" x2="0" y2="0" width="0.127" layer="21"/>
<wire x1="0" y1="1.27" x2="0" y2="0" width="0.127" layer="21"/>
<wire x1="0" y1="0" x2="1.27" y2="0" width="0.127" layer="21"/>
<pad name="1" x="-2.54" y="-2.54" drill="1" diameter="1.8796" rot="R180"/>
<pad name="2" x="0" y="2.54" drill="1" diameter="1.8796" rot="R180"/>
<pad name="3" x="2.54" y="-2.54" drill="1" diameter="1.8796" rot="R180"/>
<text x="3.175" y="1.27" size="0.6096" layer="25">&gt;Name</text>
<text x="3.175" y="0" size="0.6096" layer="27">&gt;Value</text>
</package>
</packages>
</library>
<library name="SparkFun-Aesthetics">
<description>&lt;h3&gt;SparkFun Electronics' preferred foot prints&lt;/h3&gt;
In this library you'll find non-functional items- supply symbols, logos, notations, frame blocks, etc.&lt;br&gt;&lt;br&gt;
We've spent an enormous amount of time creating and checking these footprints and parts, but it is the end user's responsibility to ensure correctness and suitablity for a given componet or application. If you enjoy using this library, please buy one of our products at www.sparkfun.com.
&lt;br&gt;&lt;br&gt;
&lt;b&gt;Licensing:&lt;/b&gt; CC v3.0 Share-Alike You are welcome to use this library for commercial purposes. For attribution, we ask that when you begin to sell your device using our footprint, you email us with a link to the product being sold. We want bragging rights that we helped (in a very small part) to create your 8th world wonder. We would like the opportunity to feature your device on our homepage.</description>
<packages>
<package name="OSHW-LOGO-S">
<polygon width="0.15" layer="21">
<vertex x="0.3947" y="-0.9528" curve="9.498218"/>
<vertex x="0.5465" y="-0.8746"/>
<vertex x="0.9235" y="-1.182"/>
<vertex x="1.182" y="-0.9235"/>
<vertex x="0.8746" y="-0.5465" curve="19.000773"/>
<vertex x="1.0049" y="-0.232"/>
<vertex x="1.4888" y="-0.1828"/>
<vertex x="1.4888" y="0.1828"/>
<vertex x="1.0049" y="0.232" curve="19.000773"/>
<vertex x="0.8746" y="0.5465"/>
<vertex x="1.182" y="0.9235"/>
<vertex x="0.9235" y="1.182"/>
<vertex x="0.5465" y="0.8746" curve="19.000773"/>
<vertex x="0.232" y="1.0049"/>
<vertex x="0.1828" y="1.4888"/>
<vertex x="-0.1828" y="1.4888"/>
<vertex x="-0.232" y="1.0049" curve="19.000773"/>
<vertex x="-0.5465" y="0.8746"/>
<vertex x="-0.9235" y="1.182"/>
<vertex x="-1.182" y="0.9235"/>
<vertex x="-0.8746" y="0.5465" curve="19.000773"/>
<vertex x="-1.0049" y="0.232"/>
<vertex x="-1.4888" y="0.1828"/>
<vertex x="-1.4888" y="-0.1828"/>
<vertex x="-1.0049" y="-0.232" curve="19.000773"/>
<vertex x="-0.8746" y="-0.5465"/>
<vertex x="-1.182" y="-0.9235"/>
<vertex x="-0.9235" y="-1.182"/>
<vertex x="-0.5465" y="-0.8746" curve="9.498218"/>
<vertex x="-0.3947" y="-0.9528"/>
<vertex x="-0.1794" y="-0.4331" curve="-67.514699"/>
<vertex x="-0.4688" y="0" curve="-247.473915"/>
<vertex x="0.1794" y="-0.4331"/>
</polygon>
</package>
</packages>
</library>
</libraries>
<attributes>
</attributes>
<variantdefs>
</variantdefs>
<classes>
<class number="0" name="default" width="0" drill="0">
</class>
</classes>
<designrules name="LaenPCBOrder">
<description language="de">&lt;b&gt;EAGLE Design Rules&lt;/b&gt;
&lt;p&gt;
Die Standard-Design-Rules sind so gewählt, dass sie für 
die meisten Anwendungen passen. Sollte ihre Platine 
besondere Anforderungen haben, treffen Sie die erforderlichen
Einstellungen hier und speichern die Design Rules unter 
einem neuen Namen ab.</description>
<description language="en">&lt;b&gt;Laen's PCB Order Design Rules&lt;/b&gt;
&lt;p&gt;
Please make sure your boards conform to these design rules.</description>
<param name="layerSetup" value="(1*16)"/>
<param name="mtCopper" value="0.0356mm 0.0356mm 0.0356mm 0.0356mm 0.0356mm 0.0356mm 0.0356mm 0.0356mm 0.0356mm 0.0356mm 0.0356mm 0.0356mm 0.0356mm 0.0356mm 0.0356mm 0.0356mm"/>
<param name="mtIsolate" value="1.5011mm 0.1499mm 0.2007mm 0.1499mm 0.2007mm 0.1499mm 0.2007mm 0.1499mm 0.2007mm 0.1499mm 0.2007mm 0.1499mm 0.2007mm 0.1499mm 0.2007mm"/>
<param name="mdWireWire" value="6mil"/>
<param name="mdWirePad" value="6mil"/>
<param name="mdWireVia" value="6mil"/>
<param name="mdPadPad" value="6mil"/>
<param name="mdPadVia" value="6mil"/>
<param name="mdViaVia" value="6mil"/>
<param name="mdSmdPad" value="6mil"/>
<param name="mdSmdVia" value="0mil"/>
<param name="mdSmdSmd" value="6mil"/>
<param name="mdViaViaSameLayer" value="8mil"/>
<param name="mnLayersViaInSmd" value="2"/>
<param name="mdCopperDimension" value="15mil"/>
<param name="mdDrill" value="6mil"/>
<param name="mdSmdStop" value="0mil"/>
<param name="msWidth" value="6mil"/>
<param name="msDrill" value="13mil"/>
<param name="msMicroVia" value="13mil"/>
<param name="msBlindViaRatio" value="0.5"/>
<param name="rvPadTop" value="0.25"/>
<param name="rvPadInner" value="0.25"/>
<param name="rvPadBottom" value="0.25"/>
<param name="rvViaOuter" value="0.25"/>
<param name="rvViaInner" value="0.25"/>
<param name="rvMicroViaOuter" value="0.25"/>
<param name="rvMicroViaInner" value="0.25"/>
<param name="rlMinPadTop" value="7mil"/>
<param name="rlMaxPadTop" value="20mil"/>
<param name="rlMinPadInner" value="7mil"/>
<param name="rlMaxPadInner" value="20mil"/>
<param name="rlMinPadBottom" value="7mil"/>
<param name="rlMaxPadBottom" value="20mil"/>
<param name="rlMinViaOuter" value="7mil"/>
<param name="rlMaxViaOuter" value="20mil"/>
<param name="rlMinViaInner" value="7mil"/>
<param name="rlMaxViaInner" value="20mil"/>
<param name="rlMinMicroViaOuter" value="4mil"/>
<param name="rlMaxMicroViaOuter" value="20mil"/>
<param name="rlMinMicroViaInner" value="4mil"/>
<param name="rlMaxMicroViaInner" value="20mil"/>
<param name="psTop" value="-1"/>
<param name="psBottom" value="-1"/>
<param name="psFirst" value="-1"/>
<param name="psElongationLong" value="100"/>
<param name="psElongationOffset" value="100"/>
<param name="mvStopFrame" value="1"/>
<param name="mvCreamFrame" value="0"/>
<param name="mlMinStopFrame" value="4mil"/>
<param name="mlMaxStopFrame" value="4mil"/>
<param name="mlMinCreamFrame" value="0mil"/>
<param name="mlMaxCreamFrame" value="0mil"/>
<param name="mlViaStopLimit" value="13mil"/>
<param name="srRoundness" value="0"/>
<param name="srMinRoundness" value="0mil"/>
<param name="srMaxRoundness" value="0mil"/>
<param name="slThermalIsolate" value="10mil"/>
<param name="slThermalsForVias" value="0"/>
<param name="dpMaxLengthDifference" value="10mm"/>
<param name="dpGapFactor" value="2.5"/>
<param name="checkGrid" value="0"/>
<param name="checkAngle" value="0"/>
<param name="checkFont" value="1"/>
<param name="checkRestrict" value="1"/>
<param name="useDiameter" value="13"/>
<param name="maxErrors" value="50"/>
</designrules>
<autorouter>
<pass name="Default">
<param name="RoutingGrid" value="50mil"/>
<param name="tpViaShape" value="round"/>
<param name="PrefDir.1" value="|"/>
<param name="PrefDir.2" value="0"/>
<param name="PrefDir.3" value="0"/>
<param name="PrefDir.4" value="0"/>
<param name="PrefDir.5" value="0"/>
<param name="PrefDir.6" value="0"/>
<param name="PrefDir.7" value="0"/>
<param name="PrefDir.8" value="0"/>
<param name="PrefDir.9" value="0"/>
<param name="PrefDir.10" value="0"/>
<param name="PrefDir.11" value="0"/>
<param name="PrefDir.12" value="0"/>
<param name="PrefDir.13" value="0"/>
<param name="PrefDir.14" value="0"/>
<param name="PrefDir.15" value="0"/>
<param name="PrefDir.16" value="-"/>
<param name="cfVia" value="8"/>
<param name="cfNonPref" value="5"/>
<param name="cfChangeDir" value="2"/>
<param name="cfOrthStep" value="2"/>
<param name="cfDiagStep" value="3"/>
<param name="cfExtdStep" value="0"/>
<param name="cfBonusStep" value="1"/>
<param name="cfMalusStep" value="1"/>
<param name="cfPadImpact" value="4"/>
<param name="cfSmdImpact" value="4"/>
<param name="cfBusImpact" value="0"/>
<param name="cfHugging" value="3"/>
<param name="cfAvoid" value="4"/>
<param name="cfPolygon" value="10"/>
<param name="cfBase.1" value="0"/>
<param name="cfBase.2" value="1"/>
<param name="cfBase.3" value="1"/>
<param name="cfBase.4" value="1"/>
<param name="cfBase.5" value="1"/>
<param name="cfBase.6" value="1"/>
<param name="cfBase.7" value="1"/>
<param name="cfBase.8" value="1"/>
<param name="cfBase.9" value="1"/>
<param name="cfBase.10" value="1"/>
<param name="cfBase.11" value="1"/>
<param name="cfBase.12" value="1"/>
<param name="cfBase.13" value="1"/>
<param name="cfBase.14" value="1"/>
<param name="cfBase.15" value="1"/>
<param name="cfBase.16" value="0"/>
<param name="mnVias" value="20"/>
<param name="mnSegments" value="9999"/>
<param name="mnExtdSteps" value="9999"/>
<param name="mnRipupLevel" value="10"/>
<param name="mnRipupSteps" value="100"/>
<param name="mnRipupTotal" value="100"/>
</pass>
<pass name="Follow-me" refer="Default" active="yes">
</pass>
<pass name="Busses" refer="Default" active="yes">
<param name="cfNonPref" value="4"/>
<param name="cfBusImpact" value="4"/>
<param name="cfHugging" value="0"/>
<param name="mnVias" value="0"/>
</pass>
<pass name="Route" refer="Default" active="yes">
</pass>
<pass name="Optimize1" refer="Default" active="yes">
<param name="cfVia" value="99"/>
<param name="cfExtdStep" value="10"/>
<param name="cfHugging" value="1"/>
<param name="mnExtdSteps" value="1"/>
<param name="mnRipupLevel" value="0"/>
</pass>
<pass name="Optimize2" refer="Optimize1" active="yes">
<param name="cfNonPref" value="0"/>
<param name="cfChangeDir" value="6"/>
<param name="cfExtdStep" value="0"/>
<param name="cfBonusStep" value="2"/>
<param name="cfMalusStep" value="2"/>
<param name="cfPadImpact" value="2"/>
<param name="cfSmdImpact" value="2"/>
<param name="cfHugging" value="0"/>
</pass>
<pass name="Optimize3" refer="Optimize2" active="yes">
<param name="cfChangeDir" value="8"/>
<param name="cfPadImpact" value="0"/>
<param name="cfSmdImpact" value="0"/>
</pass>
<pass name="Optimize4" refer="Optimize3" active="yes">
<param name="cfChangeDir" value="25"/>
</pass>
</autorouter>
<elements>
<element name="INPUT" library="aditya_main" package="3POS_254MM_1R_THRU" value="3POS_TERMINAL_254MM_THRU" x="1.27" y="6.35" smashed="yes" rot="R90"/>
<element name="AMP" library="SparkFun-AnalogIC" package="SOT23-5" value="OPA344" x="36.83" y="7.62" smashed="yes" rot="R180">
<attribute name="NAME" x="38.608" y="7.112" size="1.016" layer="25" ratio="15"/>
<attribute name="VALUE" x="37.7825" y="7.8105" size="0.4064" layer="27" rot="R180"/>
</element>
<element name="R1" library="aditya_main" package="AXIAL-5MM" value="10K" x="33.02" y="3.81" smashed="yes">
<attribute name="NAME" x="32.258" y="1.524" size="1.016" layer="25" ratio="15"/>
</element>
<element name="R2" library="aditya_main" package="AXIAL-5MM" value="10K" x="40.64" y="3.81" smashed="yes">
<attribute name="NAME" x="39.878" y="1.524" size="1.016" layer="25" ratio="15"/>
</element>
<element name="OUT" library="aditya_main" package="3POS_254MM_1R_THRU" value="3POS_TERMINAL_254MM_THRU" x="48.26" y="6.35" smashed="yes" rot="R90"/>
<element name="OUTPUT1" library="aditya_main" package="3POS_254MM_1R_THRU" value="3POS_TERMINAL_254MM_THRU" x="45.72" y="6.35" smashed="yes" rot="R90"/>
<element name="R3" library="aditya_main" package="AXIAL-5MM" value="" x="9.144" y="10.16" smashed="yes">
<attribute name="NAME" x="8.382" y="11.176" size="1.016" layer="25" ratio="15"/>
<attribute name="VALUE" x="8.112" y="9.952" size="0.4" layer="21" ratio="15"/>
</element>
<element name="C1" library="aditya_main" package="AXIAL-5MM" value="" x="11.684" y="5.588" smashed="yes" rot="R270">
<attribute name="NAME" x="10.668" y="4.826" size="1.016" layer="25" ratio="15" rot="R90"/>
<attribute name="VALUE" x="11.476" y="6.62" size="0.4" layer="21" ratio="15" rot="R270"/>
</element>
<element name="R4" library="aditya_main" package="AXIAL-5MM" value="" x="14.224" y="12.192" smashed="yes">
<attribute name="NAME" x="13.462" y="13.208" size="1.016" layer="25" ratio="15"/>
<attribute name="VALUE" x="13.192" y="11.984" size="0.4" layer="21" ratio="15"/>
</element>
<element name="C2" library="aditya_main" package="AXIAL-5MM" value="" x="16.764" y="5.588" smashed="yes" rot="R270">
<attribute name="NAME" x="15.748" y="4.826" size="1.016" layer="25" ratio="15" rot="R90"/>
<attribute name="VALUE" x="16.556" y="6.62" size="0.4" layer="21" ratio="15" rot="R270"/>
</element>
<element name="C3" library="aditya_main" package="AXIAL-5MM" value="" x="19.304" y="10.16" smashed="yes">
<attribute name="NAME" x="18.288" y="11.176" size="1.016" layer="25" ratio="15"/>
<attribute name="VALUE" x="18.272" y="9.952" size="0.4" layer="21" ratio="15"/>
</element>
<element name="R5" library="aditya_main" package="AXIAL-5MM" value="" x="21.844" y="5.588" smashed="yes" rot="R90">
<attribute name="NAME" x="20.828" y="4.826" size="1.016" layer="25" ratio="15" rot="R90"/>
<attribute name="VALUE" x="22.052" y="4.556" size="0.4" layer="21" ratio="15" rot="R90"/>
</element>
<element name="C4" library="aditya_main" package="AXIAL-5MM" value="" x="24.384" y="12.192" smashed="yes">
<attribute name="NAME" x="23.622" y="13.208" size="1.016" layer="25" ratio="15"/>
<attribute name="VALUE" x="23.352" y="11.984" size="0.4" layer="21" ratio="15"/>
</element>
<element name="R6" library="aditya_main" package="AXIAL-5MM" value="" x="26.924" y="7.62" smashed="yes" rot="R90">
<attribute name="NAME" x="25.908" y="6.858" size="1.016" layer="25" ratio="15" rot="R90"/>
<attribute name="VALUE" x="27.132" y="6.588" size="0.4" layer="21" ratio="15" rot="R90"/>
</element>
<element name="INPUT1" library="aditya_main" package="3POS_254MM_1R_THRU" value="3POS_TERMINAL_254MM_THRU" x="3.81" y="6.35" smashed="yes" rot="R90"/>
<element name="RV2" library="SparkFun-Electromechanical" package="TRIM_POT_PTH" value="TRIMPOTPTH" x="40.64" y="12.7" smashed="yes" rot="R180">
<attribute name="NAME" x="42.291" y="16.51" size="1.016" layer="25" ratio="15" rot="R180"/>
<attribute name="VALUE" x="37.465" y="12.7" size="0.6096" layer="27" rot="R180"/>
</element>
<element name="RV1" library="SparkFun-Electromechanical" package="TRIM_POT_PTH" value="TRIMPOTPTH" x="33.02" y="12.7" smashed="yes" rot="R180">
<attribute name="NAME" x="34.671" y="16.51" size="1.016" layer="25" ratio="15" rot="R180"/>
<attribute name="VALUE" x="29.845" y="12.7" size="0.6096" layer="27" rot="R180"/>
</element>
<element name="U$3" library="aditya_main" package="SCREW_#2" value="" x="2.54" y="15.24"/>
<element name="U$7" library="aditya_main" package="SCREW_#2" value="" x="2.54" y="2.54"/>
<element name="U$8" library="aditya_main" package="SCREW_#2" value="" x="46.99" y="2.54"/>
<element name="U$9" library="aditya_main" package="SCREW_#2" value="" x="46.99" y="15.24"/>
<element name="LOGO1" library="SparkFun-Aesthetics" package="OSHW-LOGO-S" value="OSHW-LOGOS" x="6.096" y="2.54"/>
</elements>
<signals>
<signal name="+VIN">
<contactref element="INPUT" pad="P$1"/>
<contactref element="AMP" pad="5"/>
<contactref element="OUT" pad="P$1"/>
<contactref element="OUTPUT1" pad="P$1"/>
<contactref element="INPUT1" pad="P$1"/>
<wire x1="1.27" y1="6.35" x2="3.81" y2="6.35" width="0.762" layer="16"/>
<wire x1="48.26" y1="6.35" x2="45.72" y2="6.35" width="0.762" layer="1"/>
<wire x1="37.78" y1="6.3199" x2="38.8319" y2="6.3199" width="0.381" layer="1"/>
<wire x1="38.8319" y1="6.3199" x2="38.862" y2="6.35" width="0.381" layer="1"/>
<via x="38.862" y="6.35" extent="1-16" drill="0.3302"/>
<wire x1="8.89" y1="1.27" x2="38.1" y2="1.27" width="0.762" layer="16"/>
<wire x1="38.1" y1="1.27" x2="43.18" y2="6.35" width="0.762" layer="16"/>
<wire x1="43.18" y1="6.35" x2="45.72" y2="6.35" width="0.762" layer="16"/>
<wire x1="38.862" y1="6.35" x2="43.18" y2="6.35" width="0.381" layer="16"/>
<wire x1="3.81" y1="6.35" x2="8.89" y2="1.27" width="0.762" layer="16"/>
</signal>
<signal name="GND">
<contactref element="INPUT" pad="P$3"/>
<contactref element="AMP" pad="2"/>
<contactref element="R1" pad="P$1"/>
<contactref element="OUT" pad="P$3"/>
<contactref element="OUTPUT1" pad="P$3"/>
<contactref element="R6" pad="P$1"/>
<contactref element="R5" pad="P$1"/>
<contactref element="C2" pad="P$2"/>
<contactref element="C1" pad="P$2"/>
<contactref element="INPUT1" pad="P$3"/>
<contactref element="RV1" pad="3"/>
<polygon width="0.1524" layer="16">
<vertex x="-2.54" y="20.32"/>
<vertex x="-2.54" y="-2.54"/>
<vertex x="53.34" y="-2.54"/>
<vertex x="53.34" y="20.32"/>
</polygon>
<wire x1="36.83" y1="8.9201" x2="36.83" y2="10.16" width="0.381" layer="1"/>
<via x="36.83" y="10.16" extent="1-16" drill="0.3302"/>
</signal>
<signal name="SIG_OUTPUT">
<contactref element="R2" pad="P$2"/>
<contactref element="AMP" pad="1"/>
<contactref element="OUT" pad="P$2"/>
<contactref element="OUTPUT1" pad="P$2"/>
<contactref element="RV2" pad="2"/>
<wire x1="43.18" y1="10.16" x2="39.0199" y2="10.16" width="0.762" layer="1"/>
<wire x1="39.0199" y1="10.16" x2="37.78" y2="8.9201" width="0.762" layer="1"/>
<wire x1="43.14" y1="3.81" x2="43.14" y2="10.12" width="0.762" layer="1"/>
<wire x1="43.14" y1="10.12" x2="43.18" y2="10.16" width="0.762" layer="1"/>
<wire x1="45.72" y1="8.89" x2="48.26" y2="8.89" width="0.762" layer="1"/>
<wire x1="45.72" y1="8.89" x2="44.45" y2="8.89" width="0.762" layer="1"/>
<wire x1="44.45" y1="8.89" x2="43.18" y2="10.16" width="0.762" layer="1"/>
<wire x1="39.0199" y1="10.16" x2="40.64" y2="10.16" width="0" layer="19" extent="1-1"/>
</signal>
<signal name="N$3">
<contactref element="R3" pad="P$2"/>
<contactref element="R4" pad="P$1"/>
<contactref element="C1" pad="P$1"/>
<wire x1="11.644" y1="10.16" x2="11.644" y2="12.112" width="0.762" layer="1"/>
<wire x1="11.644" y1="12.112" x2="11.724" y2="12.192" width="0.762" layer="1"/>
<wire x1="11.644" y1="10.16" x2="11.644" y2="8.128" width="0.762" layer="1"/>
<wire x1="11.644" y1="8.128" x2="11.684" y2="8.088" width="0.762" layer="1"/>
</signal>
<signal name="N$4">
<contactref element="R4" pad="P$2"/>
<contactref element="C3" pad="P$1"/>
<contactref element="C2" pad="P$1"/>
<wire x1="16.804" y1="10.16" x2="16.804" y2="12.112" width="0.762" layer="1"/>
<wire x1="16.804" y1="12.112" x2="16.724" y2="12.192" width="0.762" layer="1"/>
<wire x1="16.804" y1="10.16" x2="16.804" y2="8.128" width="0.762" layer="1"/>
<wire x1="16.804" y1="8.128" x2="16.764" y2="8.088" width="0.762" layer="1"/>
</signal>
<signal name="N$5">
<contactref element="C3" pad="P$2"/>
<contactref element="C4" pad="P$1"/>
<contactref element="R5" pad="P$2"/>
<wire x1="21.804" y1="10.16" x2="21.804" y2="12.112" width="0.762" layer="1"/>
<wire x1="21.804" y1="12.112" x2="21.884" y2="12.192" width="0.762" layer="1"/>
<wire x1="21.804" y1="10.16" x2="21.804" y2="8.128" width="0.762" layer="1"/>
<wire x1="21.804" y1="8.128" x2="21.844" y2="8.088" width="0.762" layer="1"/>
</signal>
<signal name="N$6">
<contactref element="C4" pad="P$2"/>
<contactref element="AMP" pad="3"/>
<contactref element="R6" pad="P$2"/>
<wire x1="26.924" y1="10.12" x2="26.924" y2="12.152" width="0.762" layer="1"/>
<wire x1="26.924" y1="12.152" x2="26.884" y2="12.192" width="0.762" layer="1"/>
<wire x1="35.88" y1="8.9201" x2="35.5901" y2="8.9201" width="0.762" layer="1"/>
<wire x1="35.5901" y1="8.9201" x2="34.29" y2="7.62" width="0.762" layer="1"/>
<wire x1="34.29" y1="7.62" x2="29.424" y2="7.62" width="0.762" layer="1"/>
<wire x1="29.424" y1="7.62" x2="26.924" y2="10.12" width="0.762" layer="1"/>
</signal>
<signal name="SIG_INPUT">
<contactref element="INPUT1" pad="P$2"/>
<contactref element="INPUT" pad="P$2"/>
<contactref element="R3" pad="P$1"/>
<wire x1="1.27" y1="8.89" x2="3.81" y2="8.89" width="0.762" layer="1"/>
<wire x1="3.81" y1="8.89" x2="5.374" y2="8.89" width="0.762" layer="1"/>
<wire x1="5.374" y1="8.89" x2="6.644" y2="10.16" width="0.762" layer="1"/>
</signal>
<signal name="N$7">
<contactref element="RV1" pad="2"/>
<contactref element="AMP" pad="4"/>
<contactref element="R1" pad="P$2"/>
<contactref element="R2" pad="P$1"/>
<contactref element="RV2" pad="3"/>
<wire x1="33.02" y1="6.31" x2="35.52" y2="3.81" width="0.762" layer="16"/>
<wire x1="35.88" y1="6.3199" x2="35.88" y2="4.17" width="0.762" layer="1"/>
<wire x1="35.88" y1="4.17" x2="35.52" y2="3.81" width="0.762" layer="1"/>
<wire x1="38.14" y1="3.81" x2="35.52" y2="3.81" width="0.762" layer="1"/>
<wire x1="33.02" y1="6.31" x2="33.02" y2="10.16" width="0.762" layer="16"/>
<wire x1="33.02" y1="10.16" x2="38.1" y2="15.24" width="0.762" layer="1"/>
</signal>
<signal name="N$8">
<contactref element="RV1" pad="1"/>
</signal>
</signals>
</board>
</drawing>
</eagle>

